{
  "title" : "Agriculture",
  "categoryBrand" : "category-brand--redbud",
  "breadcrumbs" : [
    {
      "url" : "../04-pages-00-homepage/04-pages-00-homepage.html",
      "linkTitle" : "Home"
    },
    {
      "url" : "",
      "linkTitle" : "Agriculture"
    }
  ],
  "taxonomyResults": [
    {
      "img": {
        "thumbnail": {
          "src": "../../images/sample/random/random-14-thumbnail.jpg",
          "alt": "Photo"
        }
      },
      "headline" : {
        "medium" : "Rice disease-resistance discovery closes the loop for scientific integrity"
      },
      "teaserByline": true,
      "author": {
        "firstName": "Pat",
        "lastName": "Bailey"
      },
      "year": {
        "long": "2021"
      },
      "month": {
        "long": "July"
      },
      "day": {
        "short": "24"
      },
      "teaserCategorized": true,
      "catList": [
        {
          "categoryValue": "Agriculture",
          "brandColor": "redbud"
        },
        {
          "categoryValue": "Society, Arts & Culture",
          "brandColor": "redbud"
        }
      ],
      "teaserSummary": true,
      "excerpt": {
        "short": "When disease-resistant rice is invaded by disease-causing bacteria, a small protein produced by the bacteria betrays the invader. Upon recognizing that protein, [...]"
      }
    },
    {
      "img": {
        "thumbnail": {
          "src": "../../images/sample/random/random-02-thumbnail.jpg",
          "alt": "News photo"
        }
      },
      "brandClass" : "category-brand--redbud",
      "headline" : {
        "medium" : "Drought and climate change fuel high-elevation California fires, study finds"
      },
      "teaserByline": true,
      "author": {
        "firstName": "Pat",
        "lastName": "Bailey"
      },
      "year": {
        "long": "2021"
      },
      "month": {
        "long": "July"
      },
      "day": {
        "short": "24"
      },
      "teaserCategorized": true,
      "catList": [
        {
          "categoryValue": "Science & Technology",
          "brandColor": "strawberry"
        },
        {
          "categoryValue": "Agriculture",
          "brandColor": "redbud"
        }
      ],
      "teaserSummary": true,
      "excerpt": {
        "short": "Wildfires in California’s fabled Sierra Nevada mountain range are increasingly burning high-elevation forests, which historically have seldom burned, reports a team of researchers led by the John Muir [...]"
      }
    },
    {
      "img": {
        "thumbnail": {
          "src": "../../images/sample/random/random-03-thumbnail.jpg",
          "alt": "News photo"
        }
      },
      "headline" : {
        "medium" : "Campus earns 2 state awards for sustainability"
      },
      "teaserByline": true,
      "author": {
        "firstName": "Dave",
        "lastName": "Jones"
      },
      "year": {
        "long": "2021"
      },
      "month": {
        "long": "July"
      },
      "day": {
        "short": "23"
      },
      "teaserCategorized": true,
      "catList": [
        {
          "categoryValue": "University News",
          "brandColor": "double-decker"
        },
        {
          "categoryValue": "Agriculture",
          "brandColor": "redbud"
        }
      ],
      "teaserSummary": true,
      "excerpt": {
        "short": "UC Davis received two best practice awards July 21 at the 2021 California Higher Education Sustainability Conference — one in the category of sustainable food service and the other in waste reduction. [...]"
      }
    },
    {
      "img": {
        "thumbnail": {
          "src": "../../images/sample/random/random-08-thumbnail.jpg",
          "alt": "News photo"
        }
      },
      "headline" : {
        "medium" : "Study in calves offers hope for respiratory-disease treatment"
      },
      "teaserByline": true,
      "author": {
        "firstName": "Pat",
        "lastName": "Bailey"
      },
      "year": {
        "long": "2021"
      },
      "month": {
        "long": "July"
      },
      "day": {
        "short": "23"
      },
      "teaserCategorized": true,
      "catList": [
        {
          "categoryValue": "Science & Technology",
          "brandColor": "tahoe"
        },
        {
          "categoryValue": "Agriculture",
          "brandColor": "redbud"
        }
      ],
      "teaserSummary": true,
      "excerpt": {
        "short": "As every parent knows, respiratory illnesses — complete with runny nose, sore throat and cough — are quite routine for young children and usually pass as quickly as they appear. [...]"
      }
    },
    {
      "img": {
        "thumbnail": {
          "src": "../../images/sample/random/random-13-thumbnail.jpg",
          "alt": "News photo"
        }
      },
      "headline" : {
        "medium" : "Children of imprisoned parents have health problems"
      },
      "teaserByline": true,
      "author": {
        "firstName": "Jeffrey",
        "lastName": "Day"
      },
      "year": {
        "long": "2021"
      },
      "month": {
        "long": "July"
      },
      "day": {
        "short": "17"
      },
      "teaserCategorized": true,
      "catList": [
        {
          "categoryValue": "Agriculture",
          "brandColor": "redbud"
        },
        {
          "categoryValue": "Human & Animal Health",
          "brandColor": "strawberry"
        }
      ],
      "excerpt": {
        "short": "Children whose parents are in prison have worse health, poorer school performance and are at a greater risk for depression, anxiety, asthma and HIV/AIDS, according to a policy brief released by the Center for [...]"
      }
    },
    {
      "img": {
        "thumbnail": {
          "src": "../../images/sample/random/random-06-thumbnail.jpg",
          "alt": "News photo"
        }
      },
      "headline" : {
        "medium" : "UC Davis receives ‘A’ grade in Money’s ‘Best Colleges’"
      },
      "teaserByline": true,
      "author": {
        "firstName": "Karen",
        "lastName": "Nikos-Rose"
      },
      "year": {
        "long": "2021"
      },
      "month": {
        "long": "July"
      },
      "day": {
        "short": "14"
      },
      "teaserCategorized": true,
      "catList": [
        {
          "categoryValue": "Science & Technology",
          "brandColor": "tahoe"
        },
        {
          "categoryValue": "Agriculture",
          "brandColor": "redbud"
        }
      ],
      "excerpt": {
        "short": "The University of California, Davis, received an “A” grade in Money magazine’s 2021 “Best Colleges,” measuring educational quality, affordability and career earnings to help families find great schools that are truly worth the investment. [...]"
      }
    }
  ]
}
