{
  "title": "Site Search",
  "search-term": "Agriculture",
  "searchResultsList": [
    {
      "headline": {
        "medium": "Rice disease-resistance discovery closes the loop for scientific integrity"
      },
      "author": {
        "firstName": "Olivia",
        "lastName": "Lizbeth"
      }
    },
    {
      "headline": {
        "medium": "Drought and climate change fuel high-elevation California fires, study finds"
      },
      "author": {
        "firstName": "Janeka",
        "lastName": "Elodia"
      }
    },
    {
      "headline": {
        "medium": "Campus earns 2 state awards for sustainability"
      },
      "author": {
        "firstName": "Stan",
        "lastName": "Albert"
      }
    },
    {
      "headline": {
        "medium": "Study in calves offers hope for respiratory-disease treatment"
      },
      "author": {
        "firstName": "Charlton",
        "lastName": "Georgiy"
      }
    },
    {
      "headline": {
        "medium": "Children of imprisoned parents have health problems"
      },
      "author": {
        "firstName": "Olivia",
        "lastName": "Lizbeth"
      }
    }
  ],
  "filterList": [
    {
      "filter": "Society, Arts & Culture",
      "filterNum": "(23)"
    },
    {
      "filter": "Agriculture",
      "filterNum": "(30)"
    },
    {
      "filter": "Science & Technology",
      "filterNum": "(1)"
    },
    {
      "filter": "University News",
      "filterNum": "(45)"
    },
    {
      "filter": "Human & Animal Health",
      "filterNum": "(8)"
    }
  ]
}