{
  "title": "Photo Galleries",
  "breadcrumbs" : [
    {
      "url" : "../04-pages-00-homepage/04-pages-00-homepage.html",
      "linkTitle" : "Home"
    },
    {
      "url" : "",
      "linkTitle" : "Photo Galleries"
    }
  ],
  "photoGalleries": [
    {
      "url": "../04-pages-10-photo-gallery/04-pages-10-photo-gallery.html",
      "brandClass": "category-brand--double-decker",
      "img": {
        "landscape16x9": {
          "src": "../../images/sample/photogallery/photo-gallery-01-landscape16x9.jpg"
        }
      },
      "headline": {
        "short": "African Ants Become a Problem for Coffee Growers"
      },
      "excerpt": {
        "short": "Of all the issues facing rural growers in South america these ants have taken a top spot as nuisance of the year."
      }
    },
    {
      "url": "../04-pages-10-photo-gallery/04-pages-10-photo-gallery.html",
      "brandClass": "category-brand--poppy",
      "img": {
        "landscape16x9": {
          "src": "../../images/sample/photogallery/photo-gallery-02-landscape16x9.jpg"
        }
      },
      "headline": {
        "short": "New Island Chain Discovered off the Coast of Australia"
      },
      "excerpt": {
        "short": "In the age of Google Maps® and satalites it's hard to believe these islands have gone unnoticed all this time."
      }
    },
    {
      "url": "../04-pages-10-photo-gallery/04-pages-10-photo-gallery.html",
      "brandClass": "category-brand--tahoe",
      "img": {
        "landscape16x9": {
          "src": "../../images/sample/photogallery/photo-gallery-03-landscape16x9.jpg"
        }
      },
      "headline": {
        "short": "A Different Point of View"
      },
      "excerpt": {
        "short": "Photographer Jay Smith's new series of coastal photos brings new meaning to the phrase, \"Just Relax\"."
      }
    },
    {
      "url": "../04-pages-10-photo-gallery/04-pages-10-photo-gallery.html",
      "brandClass": "category-brand--putah-creek",
      "img": {
        "landscape16x9": {
          "src": "../../images/sample/photogallery/photo-gallery-04-landscape16x9.jpg"
        }
      },
      "headline": {
        "short": "The Trees of Northern California"
      },
      "excerpt": {
        "short": "Not normally known for exceptional beauty during the turn of the seasons, California, as it's residents know can rival event the most beautiful trees."
      }
    },
    {
      "url": "../04-pages-10-photo-gallery/04-pages-10-photo-gallery.html",
      "brandClass": "category-brand--redwood",
      "img": {
        "landscape16x9": {
          "src": "../../images/sample/photogallery/photo-gallery-05-landscape16x9.jpg"
        }
      },
      "headline": {
        "short": "Fish Research in the Bahamas"
      },
      "excerpt": {
        "short": "The ocean holds many a mystery and researchers are tapping rare fish for possible answers to genetic research."
      }
    },
    {
      "url": "../04-pages-10-photo-gallery/04-pages-10-photo-gallery.html",
      "brandClass": "category-brand--double-decker",
      "img": {
        "landscape16x9": {
          "src": "../../images/sample/photogallery/photo-gallery-06-landscape16x9.jpg"
        }
      },
      "headline": {
        "short": "Flowers Offer New Look into Genetic Mutations"
      },
      "excerpt": {
        "short": "View a gallery of this beautiful flowers mutations over the last 20 years."
      }
    }
  ],
  "categoryFilter": [
    {
      "brandColor": "category-brand--admin-blue",
      "isActiveLink": true,
      "text": "Research"
    },
    {
      "brandColor": "category-brand--double-decker",
      "text": "Nature"
    },
    {
      "brandColor": "category-brand--cabernet",
      "text": "On Campus"
    },
    {
      "brandColor": "category-brand--quad",
      "text": "Agriculture"
    },
    {
      "brandColor": "category-brand--tahoe",
      "text": "Summer"
    },
    {
      "brandColor": "category-brand--redbud",
      "text": "Technology"
    },
    {
      "brandColor": "category-brand--poppy",
      "text": "Photography"
    }
  ]
}