{
  "title": "Log In",
  "breadcrumbs" : [
    {
      "url" : "../04-pages-00-homepage/04-pages-00-homepage.html",
      "linkTitle" : "Home"
    },
    {
      "url" : "",
      "linkTitle" : "CAS Login"
    }
  ]
}