{
  "cacheBust": true,
  "cleanPublic": true,
  "defaultPattern": "all",
  "defaultShowPatternInfo": false,
  "ishControlsHide": {
    "s": false,
    "m": false,
    "l": false,
    "full": false,
    "random": false,
    "disco": false,
    "hay": true,
    "mqs": false,
    "find": false,
    "views-all": false,
    "views-annotations": false,
    "views-code": false,
    "views-new": false,
    "tools-all": false,
    "tools-docs": false
  },
  "ishViewportRange": {
    "s": [
      240,
      500
    ],
    "m": [
      500,
      800
    ],
    "l": [
      800,
      2600
    ]
  },
  "logLevel": "info",
  "outputFileSuffixes": {
    "rendered": ".rendered",
    "rawTemplate": "",
    "markupOnly": ".markup-only"
  },
  "paths": {
    "source": {
      "root": "./source/",
      "patterns": "./source/_patterns/",
      "data": "./source/_data/",
      "meta": "./source/_meta/",
      "annotations": "./source/_annotations/",
      "styleguide": "dist/",
      "patternlabFiles": {
        "general-header": "views/partials/general-header.mustache",
        "general-footer": "views/partials/general-footer.mustache",
        "patternSection": "views/partials/patternSection.mustache",
        "patternSectionSubgroup": "views/partials/patternSectionSubgroup.mustache",
        "viewall": "views/viewall.mustache"
      },
      "images": "./source/images",
      "fonts": "./source/fonts",
      "pl": "./source/_pl",
      "js": "./source/js",
      "sass": "./source/sass"
    },
    "public": {
      "root": "./public/",
      "patterns": "./public/patterns/",
      "data": "./public/styleguide/data/",
      "annotations": "./public/annotations/",
      "styleguide": "./public/styleguide/",
      "images": "./public/images",
      "fonts": "./public/fonts",
      "pl": "./public/pl",
      "js": "./public/js",
      "sass": "./public/sass"
    }
  },
  "patternExtension": "hbs",
  "patternStateCascade": [
    "inprogress",
    "inreview",
    "complete"
  ],
  "patternExportAll": false,
  "patternExportDirectory": "pattern_exports",
  "patternExportPatternPartials": [],
  "patternExportPreserveDirectoryStructure": true,
  "patternExportRaw": false,
  "patternMergeVariantArrays": true,
  "renderFlatPatternsOnViewAllPages": false,
  "serverOptions": {
    "wait": 1000
  },
  "starterkitSubDir": "dist",
  "styleGuideExcludes": [],
  "theme": {
    "color": "dark",
    "density": "compact",
    "layout": "horizontal"
  },
  "uikits": [
    {
      "name": "uikit-workshop",
      "package": "@pattern-lab/uikit-workshop",
      "outputDir": "",
      "enabled": true,
      "excludedPatternStates": [],
      "excludedTags": []
    }
  ],
  "disableDeprecationWarningForOrderPatterns": true
}
