{
  "focusBoxText":  "<p>Lorem ipsum dolor sit amet, consectetur adipisicing elit, sed do eiusmod tempor incididunt ut labore et dolore magna aliqua. Ut enim ad minim veniam, quis nostrud exercitation ullamco laboris nisi ut aliquip ex ea commodo consequat. Duis aute irure dolor in reprehenderit in voluptate velit esse cillum dolore eu fugiat nulla pariatur. Excepteur sint occaecat cupidatat non proident, sunt in culpa qui officia deserunt mollit anim id est laborum.</p>  <p><a href=\"#\" class=\"btn btn--primary\">Primary Button</a></p>\n\n<p><a href=\"#\" class=\"btn btn--alt\">Alternative Button</a></p><section class=\"wysiwyg-feature-block \">\n<div class=\"wysiwyg-feature-block__figure\">\n<figure>\n<img src=\"../../images/placeholders/1280x720.png\" alt=\"16x9 Image\" loading=\"lazy\" width=\"1280\" height=\"720\">\n<figcaption>This is some caption text for an image</figcaption>\n</figure>\n</div>\n<h3 class=\"wysiwyg-feature-block__title\">Title for the wysiwyg-feature-block</h3>\n<div class=\"wysiwyg-feature-block__body\">\n<p>Sed vehicula metus tellus, ut <a href=\"#\">scelerisque</a> justo posuere eget. Suspendisse eu feugiat nibh.</p><h2>Title</h2><h2 class=\"heading--underline\">Title Intro</h2><h3>Subtitle</h3><h3 class=\"heading--auxiliary\">Subtitle Aux</h3><h4>Subtitle 2</h4><h5>Subtitle 3</h5><h2><a href=\"#\">Title</a></h2><h2 class=\"heading--underline\"><a href=\"#\">Title Intro</a></h2><h3><a href=\"#\">Subtitle</a></h3><h3 class=\"heading--auxiliary\"><a href=\"#\">Subtitle Aux</a></h3><h4><a href=\"#\">Subtitle 2</a></h4><h5><a href=\"#\">Subtitle 3</a></h5><p><button class=\"btn btn--primary\">Call to Action</button></p>\n</div>\n</section><a href=\"#\" class=\"media-link \">\n<div class=\"media-link__figure\">\n<img src=\"../../images/placeholders/135x135.png\" alt=\"Thumbnail\" class=\"lazyload lazyload--loaded\" loading=\"lazy\" width=\"135\" height=\"135\">\n</div>\n<div class=\"media-link__body\">\n<h3 class=\"media-link__title\">Lorem ipsum dolor sit (37 characters)</h3>\n<p>Lorem ipsum dolor sit amet, consectetur adipisicing elit, sed do eiusmod tempor incididunt ut labore et dolore magna aliqua. Ut enim ad minim veniam.</p>\n</div>\n</a>"
}
